<svg xmlns="http://www.w3.org/2000/svg" width="395" height="375" fill="none" viewBox="0 0 395 375">
    <g stroke="#fff" stroke-width="5" opacity=".3">
        <path d="M206.402 89.626l-.133 2.627H217.526c1.872 0 3.663 1.505 3.663 3.648 0 .722-.387 1.654-1.192 2.457-.804.802-1.741 1.19-2.471 1.19H54.227c-.73 0-1.667-.388-2.47-1.19-.805-.803-1.192-1.735-1.192-2.457 0-2.143 1.79-3.647 3.662-3.647H66.2l-.24-2.72C63 55.868 86.083 28.542 115.348 19.605l1.77-.54V6.146c0-1.852 1.5-3.647 3.662-3.647h30.811c2.163 0 3.663 1.795 3.663 3.647V19.068l1.773.538c27.393 8.317 51.159 35.042 49.376 70.021zM194.17 116.228c-6.343 30.08-30.114 51.557-57.985 51.557-27.899 0-52.226-21.505-58.6-51.557H194.17z"/>
        <path d="M221.348 338.073H6.162c-.633 0-1.05-.102-1.374-.246-.336-.149-.705-.401-1.174-.868-.642-.64-1.094-1.751-1.113-3.059l9.235-118.542.002-.031.002-.031c.572-10.837 6.874-21.094 16.541-26.2l.007-.003c18.373-9.776 36.67-17.677 54.907-22.531 1.408-.342 3.253.437 3.922 1.772l.025.048.026.048 36.974 66.393.714 1.284h23.269l.716-1.277 37.59-67.008.029-.051.026-.052c.669-1.335 2.514-2.114 3.923-1.772 18.27 4.862 36.548 12.155 54.836 22.492 6.136 3.575 10.869 8.948 13.429 15.286-2.129.91-3.958 2.296-5.634 3.86-.273.076-.465.179-.531.214-.192.105-.332.214-.37.244l-.002.001c-.06.047-.11.09-.143.119-.068.06-.137.124-.199.183-.128.121-.3.291-.524.514-.828.826-2.573 2.601-6.059 6.144-4.014 4.081-10.336 10.509-20.222 20.536l-.186.188-.142.223c-4.238 6.644-4.223 12.848-2.773 17.955-1.777 1.013-3.357 2.107-5.244 3.518l-.107.081-.099.091c-2.595 2.417-4.265 4.999-5.263 8.032-.978 2.968-1.27 6.249-1.31 9.986-.027 2.599.07 5.553.18 8.88.047 1.424.096 2.917.139 4.479.143 5.26.219 11.462-.086 18.916l-.002.051v.051c0 5.627 2.145 10.555 6.28 14.68 1.618 1.614 3.6 2.799 5.488 3.788-1.078 3.654-1.498 7.681-.517 11.614z"/>
        <path d="M368.585 268.574l.732.73H388.222c.633 0 1.049.102 1.374.246.336.149.705.401 1.173.868.338.337.657.828.995 1.502.165.33.318.669.483 1.036l.033.074.22.486v35.091c0 1.274-.415 2.143-.96 2.687-.546.545-1.42.96-2.702.96h-20.371v2.216l-.043.086-.012.025c-.07.138-.199.396-.305.677-.116.309-.256.776-.256 1.341v1.037l.734.733 12.325 12.295c1.486 1.482 1.486 3.584 0 5.066l-25.265 25.205c-.469.467-.838.719-1.174.868-.325.144-.741.246-1.374.246-.634 0-1.05-.102-1.375-.246-.335-.149-.705-.401-1.173-.868l-12.325-12.295-.731-.73h-1.034c-.563 0-1.029.139-1.338.254-.281.105-.539.235-.677.304l-.025.012-.09.045h-2.219v20.327c0 .63-.102 1.043-.246 1.365-.148.334-.4.701-.868 1.169-.469.467-.838.719-1.174.867-.325.145-.741.247-1.374.247h-35.741c-2.162 0-3.662-1.795-3.662-3.648v-18.759l-1.384-.691c-.363-.181-.619-.339-.921-.524-.115-.071-.237-.147-.375-.229l-.03-.018c-.359-.216-1.201-.721-2.255-.721h-1.034l-.732.73-11.708 11.68-.616.615 1.765 1.77-1.765-1.77c-1.489 1.486-3.607 1.486-5.096 0l-25.265-25.205c-1.486-1.482-1.486-3.584 0-5.066l12.324-12.295.735-.733v-1.037c0-.565-.14-1.032-.257-1.341-.105-.281-.235-.539-.304-.677l-.013-.025-.043-.086v-2.216h-17.905c-.946 0-1.957-.006-2.93-.188-.974-.182-1.654-.497-2.083-.926-.469-.467-.72-.835-.869-1.168-.143-.323-.245-.735-.245-1.365V272.951c0-.629.102-1.042.245-1.364.149-.334.4-.702.869-1.169.468-.467.838-.719 1.173-.868.325-.144.741-.246 1.375-.246h20.37v-2.5c0-.16.029-.281.129-.53l.028-.069c.053-.127.158-.379.22-.556.099-.278.24-.74.24-1.304v-1.203l-.941-.751c-1.398-1.116-2.99-2.696-4.92-4.699-.524-.543-1.071-1.116-1.641-1.713-1.492-1.562-3.141-3.289-4.941-5.084l-.098-.098-.108-.086c-.993-.793-1.217-1.478-1.217-2.196 0-.863.337-2.008 1.096-3.586l.973-.95c2.155-2.102 6.736-6.572 11.359-11.127 3.083-3.037 6.173-6.1 8.534-8.484 1.178-1.19 2.186-2.222 2.922-3 .367-.387.681-.727.921-.999.119-.135.235-.272.336-.4l.004-.005.076-.097c1.479-1.342 3.507-1.295 4.947.141l12.324 12.295.732.731h1.034c.562 0 1.029-.139 1.338-.255.281-.105.539-.234.677-.303l.025-.013.09-.044h2.218v-20.328c0-.63.103-1.042.246-1.365.149-.333.4-.701.869-1.168.468-.468.837-.719 1.173-.868.325-.144.741-.246 1.375-.246h35.741c1.282 0 2.156.415 2.702.96.545.544.96 1.413.96 2.687v20.328h2.5c.322 0 .538 0 .719.007l.109.006 1.637 1.633 1.765-1.762 12.325-12.295c1.482-1.479 3.588-1.485 5.076-.019l24.009 25.18.021.022.022.022c1.486 1.482 1.486 3.585 0 5.067l-12.324 12.295-1.279 1.276.81 1.614c.176.351.266.588.379.882.045.117.093.243.151.388.208.517.515 1.184 1.171 1.839zm-21.637 26.225l.001-.011c2.651-20.499-11.947-38.868-32.905-42.135l-.033-.005-.033-.004c-20.555-2.646-38.99 12.555-41.621 32.896l-.002.014-.001.014c-2.643 22.407 15.178 42.137 37.607 42.137 8.531 0 16.472-2.623 23.097-7.899 8.012-6.01 12.588-15.266 13.89-25.007z"/>
    </g>
</svg>
