<svg width="154" height="134" viewBox="0 0 154 134" fill="none" xmlns="http://www.w3.org/2000/svg">
<path fill-rule="evenodd" clip-rule="evenodd" d="M154 67L115.5 134H38.5L0 67L38.5 0L115.5 0L154 67Z" fill="#E0621E"/>
<path d="M107.737 76.4007L103.316 64.4303H103.213C103.927 64.2414 104.55 63.7979 104.971 63.1801C105.391 62.5624 105.582 61.8111 105.507 61.0624C105.433 60.3137 105.098 59.617 104.564 59.0984C104.03 58.5798 103.332 58.2736 102.597 58.2352H101.98L95.2975 51.935C95.4455 51.0844 95.3331 50.2079 94.9756 49.4249C94.6181 48.642 94.033 47.9907 93.2999 47.5598C92.5668 47.1289 91.7215 46.9393 90.8791 47.017C90.0367 47.0947 89.2383 47.4358 88.5926 47.9938C87.947 48.5518 87.4855 49.2997 87.2711 50.1353C87.0566 50.971 87.0997 51.8539 87.3944 52.6637C87.6892 53.4734 88.2212 54.1707 88.918 54.6603C89.6148 55.15 90.4425 55.4083 91.2882 55.4001L92.7274 55.0851L99.5124 61.4903C99.5924 62.1599 99.8807 62.7856 100.335 63.2753L87.1761 80.6008H103.625C105.578 80.6008 108.97 79.9708 107.737 76.4007Z" fill="white"/>
<path d="M77.9249 78.499H49.1401C47.7769 78.499 46.4695 79.0522 45.5055 80.0368C44.5415 81.0214 44 82.3568 44 83.7492C44 85.1416 44.5415 86.477 45.5055 87.4616C46.4695 88.4462 47.7769 88.9993 49.1401 88.9993H77.9249C79.2882 88.9993 80.5956 88.4462 81.5595 87.4616C82.5235 86.477 83.065 85.1416 83.065 83.7492C83.065 82.3568 82.5235 81.0214 81.5595 80.0368C80.5956 79.0522 79.2882 78.499 77.9249 78.499Z" fill="white"/>
<path d="M89.1318 59.2854C87.3161 58.7938 85.7198 57.6821 84.6085 56.1353L81.0104 59.6004L69.1881 47H58.3938V59.6004H46.0575V74.3008H78.9544L89.1318 59.2854Z" fill="white"/>
</svg>
