<svg width="69" height="68" viewBox="0 0 69 68" fill="none" xmlns="http://www.w3.org/2000/svg">
<mask id="path-1-outside-1" maskUnits="userSpaceOnUse" x="19.2651" y="49.6307" width="7" height="18" fill="black">
<rect fill="white" x="19.2651" y="49.6307" width="7" height="18"/>
<path d="M21.9802 50.9597C21.622 50.557 21.0026 50.5187 20.5966 50.8743C20.1909 51.2297 20.1522 51.8443 20.5104 52.2472L23.676 55.8057V66.0273C23.676 66.5645 24.1147 67 24.6562 67C25.1976 67 25.6363 66.5645 25.6363 66.0273V55.4378C25.6363 55.2007 25.549 54.9718 25.391 54.7942L21.9802 50.9597Z"/>
</mask>
<path d="M21.9802 50.9597C21.622 50.557 21.0026 50.5187 20.5966 50.8743C20.1909 51.2297 20.1522 51.8443 20.5104 52.2472L23.676 55.8057V66.0273C23.676 66.5645 24.1147 67 24.6562 67C25.1976 67 25.6363 66.5645 25.6363 66.0273V55.4378C25.6363 55.2007 25.549 54.9718 25.391 54.7942L21.9802 50.9597Z" fill="#E0621E"/>
<path d="M21.9802 50.9597C21.622 50.557 21.0026 50.5187 20.5966 50.8743C20.1909 51.2297 20.1522 51.8443 20.5104 52.2472L23.676 55.8057V66.0273C23.676 66.5645 24.1147 67 24.6562 67C25.1976 67 25.6363 66.5645 25.6363 66.0273V55.4378C25.6363 55.2007 25.549 54.9718 25.391 54.7942L21.9802 50.9597Z" stroke="#E0621E" mask="url(#path-1-outside-1)"/>
<mask id="path-2-outside-2" maskUnits="userSpaceOnUse" x="9.5332" y="26.9253" width="11" height="23" fill="black">
<rect fill="white" x="9.5332" y="26.9253" width="11" height="23"/>
<path d="M15.0608 43.1815C12.3276 40.1088 11.7205 35.7379 13.5143 32.0462L14.8385 29.3206C15.0736 28.8368 14.8689 28.2554 14.3813 28.022C13.8939 27.7887 13.3078 27.9918 13.0727 28.4758L11.7484 31.2014C9.61122 35.6001 10.3346 40.808 13.5911 44.469L17.6867 49.0733C17.8803 49.2911 18.1505 49.4023 18.4219 49.4023C18.6525 49.4023 18.8838 49.3221 19.0701 49.1589C19.4759 48.8034 19.5146 48.1888 19.1564 47.786L15.0608 43.1815Z"/>
</mask>
<path d="M15.0608 43.1815C12.3276 40.1088 11.7205 35.7379 13.5143 32.0462L14.8385 29.3206C15.0736 28.8368 14.8689 28.2554 14.3813 28.022C13.8939 27.7887 13.3078 27.9918 13.0727 28.4758L11.7484 31.2014C9.61122 35.6001 10.3346 40.808 13.5911 44.469L17.6867 49.0733C17.8803 49.2911 18.1505 49.4023 18.4219 49.4023C18.6525 49.4023 18.8838 49.3221 19.0701 49.1589C19.4759 48.8034 19.5146 48.1888 19.1564 47.786L15.0608 43.1815Z" fill="#E0621E"/>
<path d="M15.0608 43.1815C12.3276 40.1088 11.7205 35.7379 13.5143 32.0462L14.8385 29.3206C15.0736 28.8368 14.8689 28.2554 14.3813 28.022C13.8939 27.7887 13.3078 27.9918 13.0727 28.4758L11.7484 31.2014C9.61122 35.6001 10.3346 40.808 13.5911 44.469L17.6867 49.0733C17.8803 49.2911 18.1505 49.4023 18.4219 49.4023C18.6525 49.4023 18.8838 49.3221 19.0701 49.1589C19.4759 48.8034 19.5146 48.1888 19.1564 47.786L15.0608 43.1815Z" stroke="#E0621E" mask="url(#path-2-outside-2)"/>
<mask id="path-3-outside-3" maskUnits="userSpaceOnUse" x="13.8872" y="11.9075" width="40" height="38" fill="black">
<rect fill="white" x="13.8872" y="11.9075" width="40" height="38"/>
<path d="M47.8393 16.3445C46.5782 16.3445 45.4326 16.8415 44.5882 17.6471C43.8093 16.1421 42.229 15.1097 40.4099 15.1097C39.1227 15.1097 37.9562 15.6277 37.1074 16.4632C36.3121 15.0099 34.7607 14.0209 32.9802 14.0209C31.698 14.0209 30.5346 14.5341 29.6864 15.3638C28.893 13.9028 27.3369 12.9075 25.5505 12.9075C22.9617 12.9075 20.8556 14.9976 20.8556 17.5666V21.6437C18.6094 21.552 16.3936 22.592 15.0551 24.5591C14.7523 25.0044 14.8703 25.609 15.3189 25.9096C15.7676 26.21 16.3768 26.093 16.6798 25.6478C18.0394 23.6495 20.6823 23.0042 22.8264 24.1466L34.5896 30.4133C35.186 30.731 35.5646 31.3456 35.5775 32.0174C35.5911 32.7184 35.2129 33.3602 34.5904 33.6922L33.0474 34.5155C30.8557 35.6847 28.2181 35.7249 25.9914 34.6233L22.4253 32.859C21.9406 32.6192 21.3524 32.8149 21.1107 33.2955C20.8691 33.7763 21.066 34.3603 21.5505 34.5999L25.1166 36.3642C26.4691 37.0334 27.9417 37.3669 29.4139 37.3669C30.985 37.3669 32.5551 36.9868 33.9755 36.2291L34.0932 36.1663L36.0481 38.5018C36.9417 39.569 37.4337 40.9209 37.4337 42.3086V47.9098C37.4337 48.447 37.8724 48.8825 38.4139 48.8825C38.9553 48.8825 39.3941 48.447 39.3941 47.9098V42.3086C39.3941 40.4679 38.7413 38.6744 37.5562 37.2587L35.8416 35.2105C36.9202 34.4932 37.5628 33.2881 37.5375 31.9806C37.5269 31.4333 37.3959 30.9053 37.1672 30.426C38.0104 31.2273 39.1527 31.7209 40.4098 31.7209C41.7139 31.7209 42.8939 31.1892 43.7454 30.3343C44.5507 31.7545 46.0835 32.7166 47.8393 32.7166C48.5868 32.7166 49.2933 32.5415 49.9212 32.2319V34.551C49.9212 35.0882 50.3599 35.5237 50.9014 35.5237C51.4428 35.5237 51.8816 35.0882 51.8816 34.551V30.4235C52.2956 29.7295 52.5344 28.9208 52.5344 28.0574V21.0039C52.5344 18.4346 50.428 16.3445 47.8393 16.3445ZM22.816 22.0211V17.5666C22.816 16.0702 24.0427 14.8528 25.5505 14.8528C27.0584 14.8528 28.2852 16.0702 28.2852 17.5666V24.8465L23.7538 22.4325C23.4476 22.2695 23.1339 22.1334 22.816 22.0211ZM30.2455 25.8909V18.6801C30.2455 17.1838 31.4723 15.9664 32.9802 15.9664C34.4881 15.9664 35.7149 17.1838 35.7149 18.6801V27.0615C35.7149 27.5992 35.5527 28.1202 35.2579 28.5611L30.2455 25.8909ZM40.4098 29.7753C38.9019 29.7753 37.6751 28.5579 37.6751 27.0615V19.7689C37.6751 18.2725 38.9019 17.0552 40.4098 17.0552C41.9175 17.0552 43.1443 18.2726 43.1443 19.7689V27.0615C43.1443 28.5579 41.9175 29.7753 40.4098 29.7753ZM47.8393 30.7709C46.3314 30.7709 45.1047 29.5535 45.1047 28.0572V21.0037C45.1047 19.5073 46.3314 18.29 47.8393 18.29C49.3472 18.29 50.574 19.5074 50.574 21.0037V28.0572C50.574 29.5535 49.3472 30.7709 47.8393 30.7709Z"/>
</mask>
<path d="M47.8393 16.3445C46.5782 16.3445 45.4326 16.8415 44.5882 17.6471C43.8093 16.1421 42.229 15.1097 40.4099 15.1097C39.1227 15.1097 37.9562 15.6277 37.1074 16.4632C36.3121 15.0099 34.7607 14.0209 32.9802 14.0209C31.698 14.0209 30.5346 14.5341 29.6864 15.3638C28.893 13.9028 27.3369 12.9075 25.5505 12.9075C22.9617 12.9075 20.8556 14.9976 20.8556 17.5666V21.6437C18.6094 21.552 16.3936 22.592 15.0551 24.5591C14.7523 25.0044 14.8703 25.609 15.3189 25.9096C15.7676 26.21 16.3768 26.093 16.6798 25.6478C18.0394 23.6495 20.6823 23.0042 22.8264 24.1466L34.5896 30.4133C35.186 30.731 35.5646 31.3456 35.5775 32.0174C35.5911 32.7184 35.2129 33.3602 34.5904 33.6922L33.0474 34.5155C30.8557 35.6847 28.2181 35.7249 25.9914 34.6233L22.4253 32.859C21.9406 32.6192 21.3524 32.8149 21.1107 33.2955C20.8691 33.7763 21.066 34.3603 21.5505 34.5999L25.1166 36.3642C26.4691 37.0334 27.9417 37.3669 29.4139 37.3669C30.985 37.3669 32.5551 36.9868 33.9755 36.2291L34.0932 36.1663L36.0481 38.5018C36.9417 39.569 37.4337 40.9209 37.4337 42.3086V47.9098C37.4337 48.447 37.8724 48.8825 38.4139 48.8825C38.9553 48.8825 39.3941 48.447 39.3941 47.9098V42.3086C39.3941 40.4679 38.7413 38.6744 37.5562 37.2587L35.8416 35.2105C36.9202 34.4932 37.5628 33.2881 37.5375 31.9806C37.5269 31.4333 37.3959 30.9053 37.1672 30.426C38.0104 31.2273 39.1527 31.7209 40.4098 31.7209C41.7139 31.7209 42.8939 31.1892 43.7454 30.3343C44.5507 31.7545 46.0835 32.7166 47.8393 32.7166C48.5868 32.7166 49.2933 32.5415 49.9212 32.2319V34.551C49.9212 35.0882 50.3599 35.5237 50.9014 35.5237C51.4428 35.5237 51.8816 35.0882 51.8816 34.551V30.4235C52.2956 29.7295 52.5344 28.9208 52.5344 28.0574V21.0039C52.5344 18.4346 50.428 16.3445 47.8393 16.3445ZM22.816 22.0211V17.5666C22.816 16.0702 24.0427 14.8528 25.5505 14.8528C27.0584 14.8528 28.2852 16.0702 28.2852 17.5666V24.8465L23.7538 22.4325C23.4476 22.2695 23.1339 22.1334 22.816 22.0211ZM30.2455 25.8909V18.6801C30.2455 17.1838 31.4723 15.9664 32.9802 15.9664C34.4881 15.9664 35.7149 17.1838 35.7149 18.6801V27.0615C35.7149 27.5992 35.5527 28.1202 35.2579 28.5611L30.2455 25.8909ZM40.4098 29.7753C38.9019 29.7753 37.6751 28.5579 37.6751 27.0615V19.7689C37.6751 18.2725 38.9019 17.0552 40.4098 17.0552C41.9175 17.0552 43.1443 18.2726 43.1443 19.7689V27.0615C43.1443 28.5579 41.9175 29.7753 40.4098 29.7753ZM47.8393 30.7709C46.3314 30.7709 45.1047 29.5535 45.1047 28.0572V21.0037C45.1047 19.5073 46.3314 18.29 47.8393 18.29C49.3472 18.29 50.574 19.5074 50.574 21.0037V28.0572C50.574 29.5535 49.3472 30.7709 47.8393 30.7709Z" fill="#E0621E"/>
<path d="M47.8393 16.3445C46.5782 16.3445 45.4326 16.8415 44.5882 17.6471C43.8093 16.1421 42.229 15.1097 40.4099 15.1097C39.1227 15.1097 37.9562 15.6277 37.1074 16.4632C36.3121 15.0099 34.7607 14.0209 32.9802 14.0209C31.698 14.0209 30.5346 14.5341 29.6864 15.3638C28.893 13.9028 27.3369 12.9075 25.5505 12.9075C22.9617 12.9075 20.8556 14.9976 20.8556 17.5666V21.6437C18.6094 21.552 16.3936 22.592 15.0551 24.5591C14.7523 25.0044 14.8703 25.609 15.3189 25.9096C15.7676 26.21 16.3768 26.093 16.6798 25.6478C18.0394 23.6495 20.6823 23.0042 22.8264 24.1466L34.5896 30.4133C35.186 30.731 35.5646 31.3456 35.5775 32.0174C35.5911 32.7184 35.2129 33.3602 34.5904 33.6922L33.0474 34.5155C30.8557 35.6847 28.2181 35.7249 25.9914 34.6233L22.4253 32.859C21.9406 32.6192 21.3524 32.8149 21.1107 33.2955C20.8691 33.7763 21.066 34.3603 21.5505 34.5999L25.1166 36.3642C26.4691 37.0334 27.9417 37.3669 29.4139 37.3669C30.985 37.3669 32.5551 36.9868 33.9755 36.2291L34.0932 36.1663L36.0481 38.5018C36.9417 39.569 37.4337 40.9209 37.4337 42.3086V47.9098C37.4337 48.447 37.8724 48.8825 38.4139 48.8825C38.9553 48.8825 39.3941 48.447 39.3941 47.9098V42.3086C39.3941 40.4679 38.7413 38.6744 37.5562 37.2587L35.8416 35.2105C36.9202 34.4932 37.5628 33.2881 37.5375 31.9806C37.5269 31.4333 37.3959 30.9053 37.1672 30.426C38.0104 31.2273 39.1527 31.7209 40.4098 31.7209C41.7139 31.7209 42.8939 31.1892 43.7454 30.3343C44.5507 31.7545 46.0835 32.7166 47.8393 32.7166C48.5868 32.7166 49.2933 32.5415 49.9212 32.2319V34.551C49.9212 35.0882 50.3599 35.5237 50.9014 35.5237C51.4428 35.5237 51.8816 35.0882 51.8816 34.551V30.4235C52.2956 29.7295 52.5344 28.9208 52.5344 28.0574V21.0039C52.5344 18.4346 50.428 16.3445 47.8393 16.3445ZM22.816 22.0211V17.5666C22.816 16.0702 24.0427 14.8528 25.5505 14.8528C27.0584 14.8528 28.2852 16.0702 28.2852 17.5666V24.8465L23.7538 22.4325C23.4476 22.2695 23.1339 22.1334 22.816 22.0211ZM30.2455 25.8909V18.6801C30.2455 17.1838 31.4723 15.9664 32.9802 15.9664C34.4881 15.9664 35.7149 17.1838 35.7149 18.6801V27.0615C35.7149 27.5992 35.5527 28.1202 35.2579 28.5611L30.2455 25.8909ZM40.4098 29.7753C38.9019 29.7753 37.6751 28.5579 37.6751 27.0615V19.7689C37.6751 18.2725 38.9019 17.0552 40.4098 17.0552C41.9175 17.0552 43.1443 18.2726 43.1443 19.7689V27.0615C43.1443 28.5579 41.9175 29.7753 40.4098 29.7753ZM47.8393 30.7709C46.3314 30.7709 45.1047 29.5535 45.1047 28.0572V21.0037C45.1047 19.5073 46.3314 18.29 47.8393 18.29C49.3472 18.29 50.574 19.5074 50.574 21.0037V28.0572C50.574 29.5535 49.3472 30.7709 47.8393 30.7709Z" stroke="#E0621E" mask="url(#path-3-outside-3)"/>
<mask id="path-4-outside-4" maskUnits="userSpaceOnUse" x="45.9683" y="36.7234" width="7" height="31" fill="black">
<rect fill="white" x="45.9683" y="36.7234" width="7" height="31"/>
<path d="M50.9014 37.7234C50.3599 37.7234 49.9212 38.1589 49.9212 38.6961V47.5113C49.9212 48.9706 49.5285 50.4075 48.7854 51.6668L47.2998 54.1849C47.0829 54.5525 46.9683 54.9719 46.9683 55.398V66.0274C46.9683 66.5645 47.407 67 47.9484 67C48.4899 67 48.9286 66.5645 48.9286 66.0274V55.398C48.9286 55.3172 48.9503 55.2377 48.9915 55.168L50.477 52.6499C51.3959 51.0927 51.8815 49.3158 51.8815 47.5114V38.6962C51.8815 38.1589 51.4428 37.7234 50.9014 37.7234Z"/>
</mask>
<path d="M50.9014 37.7234C50.3599 37.7234 49.9212 38.1589 49.9212 38.6961V47.5113C49.9212 48.9706 49.5285 50.4075 48.7854 51.6668L47.2998 54.1849C47.0829 54.5525 46.9683 54.9719 46.9683 55.398V66.0274C46.9683 66.5645 47.407 67 47.9484 67C48.4899 67 48.9286 66.5645 48.9286 66.0274V55.398C48.9286 55.3172 48.9503 55.2377 48.9915 55.168L50.477 52.6499C51.3959 51.0927 51.8815 49.3158 51.8815 47.5114V38.6962C51.8815 38.1589 51.4428 37.7234 50.9014 37.7234Z" fill="#E0621E"/>
<path d="M50.9014 37.7234C50.3599 37.7234 49.9212 38.1589 49.9212 38.6961V47.5113C49.9212 48.9706 49.5285 50.4075 48.7854 51.6668L47.2998 54.1849C47.0829 54.5525 46.9683 54.9719 46.9683 55.398V66.0274C46.9683 66.5645 47.407 67 47.9484 67C48.4899 67 48.9286 66.5645 48.9286 66.0274V55.398C48.9286 55.3172 48.9503 55.2377 48.9915 55.168L50.477 52.6499C51.3959 51.0927 51.8815 49.3158 51.8815 47.5114V38.6962C51.8815 38.1589 51.4428 37.7234 50.9014 37.7234Z" stroke="#E0621E" mask="url(#path-4-outside-4)"/>
<mask id="path-5-outside-5" maskUnits="userSpaceOnUse" x="44.0342" y="0" width="9" height="11" fill="black">
<rect fill="white" x="44.0342" width="9" height="11"/>
<path d="M45.484 10.3268C45.6482 10.4316 45.8318 10.4817 46.0136 10.4817C46.3357 10.4817 46.6515 10.3241 46.8386 10.0353L51.7256 2.49922C52.0187 2.04751 51.8871 1.44561 51.4319 1.15485C50.9768 0.864211 50.3701 0.99455 50.0773 1.44652L45.1903 8.98259C44.8972 9.4343 45.0288 10.0361 45.484 10.3268Z"/>
</mask>
<path d="M45.484 10.3268C45.6482 10.4316 45.8318 10.4817 46.0136 10.4817C46.3357 10.4817 46.6515 10.3241 46.8386 10.0353L51.7256 2.49922C52.0187 2.04751 51.8871 1.44561 51.4319 1.15485C50.9768 0.864211 50.3701 0.99455 50.0773 1.44652L45.1903 8.98259C44.8972 9.4343 45.0288 10.0361 45.484 10.3268Z" fill="#E0621E"/>
<path d="M45.484 10.3268C45.6482 10.4316 45.8318 10.4817 46.0136 10.4817C46.3357 10.4817 46.6515 10.3241 46.8386 10.0353L51.7256 2.49922C52.0187 2.04751 51.8871 1.44561 51.4319 1.15485C50.9768 0.864211 50.3701 0.99455 50.0773 1.44652L45.1903 8.98259C44.8972 9.4343 45.0288 10.0361 45.484 10.3268Z" stroke="#E0621E" mask="url(#path-5-outside-5)"/>
<mask id="path-6-outside-6" maskUnits="userSpaceOnUse" x="54.1738" y="0.364014" width="15" height="18" fill="black">
<rect fill="white" x="54.1738" y="0.364014" width="15" height="18"/>
<path d="M55.5491 16.8478C55.7285 16.9875 55.9417 17.0553 56.1534 17.0553C56.4442 17.0553 56.732 16.9274 56.9253 16.6828L67.7908 2.93704C68.125 2.51438 68.0503 1.90289 67.6246 1.5714C67.1988 1.23991 66.5824 1.3137 66.2484 1.73636L55.3829 15.4822C55.0487 15.9049 55.1232 16.5163 55.5491 16.8478Z"/>
</mask>
<path d="M55.5491 16.8478C55.7285 16.9875 55.9417 17.0553 56.1534 17.0553C56.4442 17.0553 56.732 16.9274 56.9253 16.6828L67.7908 2.93704C68.125 2.51438 68.0503 1.90289 67.6246 1.5714C67.1988 1.23991 66.5824 1.3137 66.2484 1.73636L55.3829 15.4822C55.0487 15.9049 55.1232 16.5163 55.5491 16.8478Z" fill="#E0621E"/>
<path d="M55.5491 16.8478C55.7285 16.9875 55.9417 17.0553 56.1534 17.0553C56.4442 17.0553 56.732 16.9274 56.9253 16.6828L67.7908 2.93704C68.125 2.51438 68.0503 1.90289 67.6246 1.5714C67.1988 1.23991 66.5824 1.3137 66.2484 1.73636L55.3829 15.4822C55.0487 15.9049 55.1232 16.5163 55.5491 16.8478Z" stroke="#E0621E" mask="url(#path-6-outside-6)"/>
<mask id="path-7-outside-7" maskUnits="userSpaceOnUse" x="60.6792" y="25.4351" width="8" height="6" fill="black">
<rect fill="white" x="60.6792" y="25.4351" width="8" height="6"/>
<path d="M66.543 26.5579L62.1831 28.9639C61.7101 29.225 61.5398 29.8173 61.8029 30.2868C61.9821 30.6066 62.3161 30.7869 62.6605 30.7869C62.8216 30.7869 62.9851 30.7473 63.1361 30.664L67.496 28.258C67.969 27.997 68.1392 27.4047 67.8762 26.9352C67.613 26.4657 67.0161 26.2967 66.543 26.5579Z"/>
</mask>
<path d="M66.543 26.5579L62.1831 28.9639C61.7101 29.225 61.5398 29.8173 61.8029 30.2868C61.9821 30.6066 62.3161 30.7869 62.6605 30.7869C62.8216 30.7869 62.9851 30.7473 63.1361 30.664L67.496 28.258C67.969 27.997 68.1392 27.4047 67.8762 26.9352C67.613 26.4657 67.0161 26.2967 66.543 26.5579Z" fill="#E0621E"/>
<path d="M66.543 26.5579L62.1831 28.9639C61.7101 29.225 61.5398 29.8173 61.8029 30.2868C61.9821 30.6066 62.3161 30.7869 62.6605 30.7869C62.8216 30.7869 62.9851 30.7473 63.1361 30.664L67.496 28.258C67.969 27.997 68.1392 27.4047 67.8762 26.9352C67.613 26.4657 67.0161 26.2967 66.543 26.5579Z" stroke="#E0621E" mask="url(#path-7-outside-7)"/>
<mask id="path-8-outside-8" maskUnits="userSpaceOnUse" x="60.6792" y="40.8409" width="8" height="6" fill="black">
<rect fill="white" x="60.6792" y="40.8409" width="8" height="6"/>
<path d="M67.3934 44.5125L63.166 41.9809C62.7028 41.7035 62.1001 41.8511 61.8203 42.3111C61.5406 42.771 61.6896 43.3689 62.1532 43.6464L66.3806 46.178C66.539 46.2728 66.7136 46.318 66.8861 46.318C67.2182 46.318 67.5421 46.1505 67.7263 45.8478C68.0058 45.3879 67.857 44.79 67.3934 44.5125Z"/>
</mask>
<path d="M67.3934 44.5125L63.166 41.9809C62.7028 41.7035 62.1001 41.8511 61.8203 42.3111C61.5406 42.771 61.6896 43.3689 62.1532 43.6464L66.3806 46.178C66.539 46.2728 66.7136 46.318 66.8861 46.318C67.2182 46.318 67.5421 46.1505 67.7263 45.8478C68.0058 45.3879 67.857 44.79 67.3934 44.5125Z" fill="#E0621E"/>
<path d="M67.3934 44.5125L63.166 41.9809C62.7028 41.7035 62.1001 41.8511 61.8203 42.3111C61.5406 42.771 61.6896 43.3689 62.1532 43.6464L66.3806 46.178C66.539 46.2728 66.7136 46.318 66.8861 46.318C67.2182 46.318 67.5421 46.1505 67.7263 45.8478C68.0058 45.3879 67.857 44.79 67.3934 44.5125Z" stroke="#E0621E" mask="url(#path-8-outside-8)"/>
<mask id="path-9-outside-9" maskUnits="userSpaceOnUse" x="52.9536" y="49.593" width="6" height="6" fill="black">
<rect fill="white" x="52.9536" y="49.593" width="6" height="6"/>
<path d="M55.679 50.9338C55.3276 50.5256 54.7089 50.4772 54.2971 50.8262C53.8855 51.1752 53.8369 51.7891 54.1886 52.1975L55.7599 54.0224C55.9537 54.2475 56.2288 54.3632 56.5056 54.3632C56.7308 54.3632 56.9571 54.2866 57.1418 54.13C57.5533 53.7811 57.602 53.1671 57.2503 52.7587L55.679 50.9338Z"/>
</mask>
<path d="M55.679 50.9338C55.3276 50.5256 54.7089 50.4772 54.2971 50.8262C53.8855 51.1752 53.8369 51.7891 54.1886 52.1975L55.7599 54.0224C55.9537 54.2475 56.2288 54.3632 56.5056 54.3632C56.7308 54.3632 56.9571 54.2866 57.1418 54.13C57.5533 53.7811 57.602 53.1671 57.2503 52.7587L55.679 50.9338Z" fill="#E0621E"/>
<path d="M55.679 50.9338C55.3276 50.5256 54.7089 50.4772 54.2971 50.8262C53.8855 51.1752 53.8369 51.7891 54.1886 52.1975L55.7599 54.0224C55.9537 54.2475 56.2288 54.3632 56.5056 54.3632C56.7308 54.3632 56.9571 54.2866 57.1418 54.13C57.5533 53.7811 57.602 53.1671 57.2503 52.7587L55.679 50.9338Z" stroke="#E0621E" mask="url(#path-9-outside-9)"/>
<mask id="path-10-outside-10" maskUnits="userSpaceOnUse" x="57.3213" y="54.6658" width="9" height="10" fill="black">
<rect fill="white" x="57.3213" y="54.6658" width="9" height="10"/>
<path d="M60.0467 56.0066C59.6952 55.5983 59.0766 55.5499 58.6648 55.8989C58.2532 56.2479 58.2046 56.8619 58.5563 57.2703L64.028 63.6253C64.2218 63.8504 64.4969 63.9661 64.7737 63.9661C64.9989 63.9661 65.2252 63.8894 65.4099 63.7329C65.8214 63.3839 65.8701 62.7699 65.5184 62.3616L60.0467 56.0066Z"/>
</mask>
<path d="M60.0467 56.0066C59.6952 55.5983 59.0766 55.5499 58.6648 55.8989C58.2532 56.2479 58.2046 56.8619 58.5563 57.2703L64.028 63.6253C64.2218 63.8504 64.4969 63.9661 64.7737 63.9661C64.9989 63.9661 65.2252 63.8894 65.4099 63.7329C65.8214 63.3839 65.8701 62.7699 65.5184 62.3616L60.0467 56.0066Z" fill="#E0621E"/>
<path d="M60.0467 56.0066C59.6952 55.5983 59.0766 55.5499 58.6648 55.8989C58.2532 56.2479 58.2046 56.8619 58.5563 57.2703L64.028 63.6253C64.2218 63.8504 64.4969 63.9661 64.7737 63.9661C64.9989 63.9661 65.2252 63.8894 65.4099 63.7329C65.8214 63.3839 65.8701 62.7699 65.5184 62.3616L60.0467 56.0066Z" stroke="#E0621E" mask="url(#path-10-outside-10)"/>
<mask id="path-11-outside-11" maskUnits="userSpaceOnUse" x="36.2661" y="1.60095" width="5" height="7" fill="black">
<rect fill="white" x="36.2661" y="1.60095" width="5" height="7"/>
<path d="M37.9373 7.72694C38.0399 7.76079 38.1442 7.77687 38.2466 7.77687C38.6574 7.77687 39.0399 7.51865 39.1766 7.11078L40.2586 3.8807C40.4294 3.37088 40.1515 2.82035 39.6377 2.65084C39.1237 2.48147 38.5691 2.75732 38.3984 3.267L37.3164 6.49708C37.1457 7.00689 37.4236 7.55743 37.9373 7.72694Z"/>
</mask>
<path d="M37.9373 7.72694C38.0399 7.76079 38.1442 7.77687 38.2466 7.77687C38.6574 7.77687 39.0399 7.51865 39.1766 7.11078L40.2586 3.8807C40.4294 3.37088 40.1515 2.82035 39.6377 2.65084C39.1237 2.48147 38.5691 2.75732 38.3984 3.267L37.3164 6.49708C37.1457 7.00689 37.4236 7.55743 37.9373 7.72694Z" fill="#E0621E"/>
<path d="M37.9373 7.72694C38.0399 7.76079 38.1442 7.77687 38.2466 7.77687C38.6574 7.77687 39.0399 7.51865 39.1766 7.11078L40.2586 3.8807C40.4294 3.37088 40.1515 2.82035 39.6377 2.65084C39.1237 2.48147 38.5691 2.75732 38.3984 3.267L37.3164 6.49708C37.1457 7.00689 37.4236 7.55743 37.9373 7.72694Z" stroke="#E0621E" mask="url(#path-11-outside-11)"/>
<mask id="path-12-outside-12" maskUnits="userSpaceOnUse" x="16.1182" y="0" width="9" height="11" fill="black">
<rect fill="white" x="16.1182" width="9" height="11"/>
<path d="M22.1611 10.0352C22.3485 10.3241 22.664 10.4816 22.9862 10.4816C23.1678 10.4816 23.3516 10.4315 23.5157 10.3267C23.9709 10.0359 24.1025 9.43418 23.8095 8.98234L18.9226 1.4464C18.6297 0.994687 18.0232 0.864218 17.568 1.15473C17.1128 1.44549 16.9812 2.04726 17.2742 2.4991L22.1611 10.0352Z"/>
</mask>
<path d="M22.1611 10.0352C22.3485 10.3241 22.664 10.4816 22.9862 10.4816C23.1678 10.4816 23.3516 10.4315 23.5157 10.3267C23.9709 10.0359 24.1025 9.43418 23.8095 8.98234L18.9226 1.4464C18.6297 0.994687 18.0232 0.864218 17.568 1.15473C17.1128 1.44549 16.9812 2.04726 17.2742 2.4991L22.1611 10.0352Z" fill="#E0621E"/>
<path d="M22.1611 10.0352C22.3485 10.3241 22.664 10.4816 22.9862 10.4816C23.1678 10.4816 23.3516 10.4315 23.5157 10.3267C23.9709 10.0359 24.1025 9.43418 23.8095 8.98234L18.9226 1.4464C18.6297 0.994687 18.0232 0.864218 17.568 1.15473C17.1128 1.44549 16.9812 2.04726 17.2742 2.4991L22.1611 10.0352Z" stroke="#E0621E" mask="url(#path-12-outside-12)"/>
<mask id="path-13-outside-13" maskUnits="userSpaceOnUse" x="0" y="0.234375" width="15" height="18" fill="black">
<rect fill="white" y="0.234375" width="15" height="18"/>
<path d="M12.3403 16.6882C12.5337 16.9296 12.8194 17.0554 13.1078 17.0554C13.3217 17.0554 13.5371 16.9861 13.7175 16.8437C14.141 16.5093 14.2112 15.8973 13.874 15.4769L2.74725 1.60145C2.41021 1.18112 1.79361 1.11148 1.36992 1.44595C0.946221 1.78042 0.876172 2.39243 1.21335 2.81276L12.3403 16.6882Z"/>
</mask>
<path d="M12.3403 16.6882C12.5337 16.9296 12.8194 17.0554 13.1078 17.0554C13.3217 17.0554 13.5371 16.9861 13.7175 16.8437C14.141 16.5093 14.2112 15.8973 13.874 15.4769L2.74725 1.60145C2.41021 1.18112 1.79361 1.11148 1.36992 1.44595C0.946221 1.78042 0.876172 2.39243 1.21335 2.81276L12.3403 16.6882Z" fill="#E0621E"/>
<path d="M12.3403 16.6882C12.5337 16.9296 12.8194 17.0554 13.1078 17.0554C13.3217 17.0554 13.5371 16.9861 13.7175 16.8437C14.141 16.5093 14.2112 15.8973 13.874 15.4769L2.74725 1.60145C2.41021 1.18112 1.79361 1.11148 1.36992 1.44595C0.946221 1.78042 0.876172 2.39243 1.21335 2.81276L12.3403 16.6882Z" stroke="#E0621E" mask="url(#path-13-outside-13)"/>
<mask id="path-14-outside-14" maskUnits="userSpaceOnUse" x="0" y="25.4352" width="9" height="6" fill="black">
<rect fill="white" y="25.4352" width="9" height="6"/>
<path d="M6.14628 30.6754C6.29161 30.751 6.44739 30.7869 6.60082 30.7869C6.95355 30.7869 7.29452 30.5975 7.46964 30.266C7.72109 29.7903 7.53643 29.2023 7.05706 28.9527L2.43574 26.5467C1.95651 26.2972 1.36396 26.4804 1.11238 26.9561C0.860935 27.4318 1.0456 28.0199 1.52497 28.2694L6.14628 30.6754Z"/>
</mask>
<path d="M6.14628 30.6754C6.29161 30.751 6.44739 30.7869 6.60082 30.7869C6.95355 30.7869 7.29452 30.5975 7.46964 30.266C7.72109 29.7903 7.53643 29.2023 7.05706 28.9527L2.43574 26.5467C1.95651 26.2972 1.36396 26.4804 1.11238 26.9561C0.860935 27.4318 1.0456 28.0199 1.52497 28.2694L6.14628 30.6754Z" fill="#E0621E"/>
<path d="M6.14628 30.6754C6.29161 30.751 6.44739 30.7869 6.60082 30.7869C6.95355 30.7869 7.29452 30.5975 7.46964 30.266C7.72109 29.7903 7.53643 29.2023 7.05706 28.9527L2.43574 26.5467C1.95651 26.2972 1.36396 26.4804 1.11238 26.9561C0.860935 27.4318 1.0456 28.0199 1.52497 28.2694L6.14628 30.6754Z" stroke="#E0621E" mask="url(#path-14-outside-14)"/>
<mask id="path-15-outside-15" maskUnits="userSpaceOnUse" x="0.393555" y="40.8411" width="8" height="6" fill="black">
<rect fill="white" x="0.393555" y="40.8411" width="8" height="6"/>
<path d="M7.44064 42.3113C7.16084 41.8514 6.55849 41.7036 6.09493 41.9811L1.86752 44.5126C1.40396 44.7902 1.25498 45.3881 1.53465 45.8479C1.71879 46.1506 2.04277 46.3182 2.37485 46.3182C2.54723 46.3182 2.72197 46.2731 2.88036 46.1781L7.10778 43.6466C7.57133 43.369 7.72019 42.7712 7.44064 42.3113Z"/>
</mask>
<path d="M7.44064 42.3113C7.16084 41.8514 6.55849 41.7036 6.09493 41.9811L1.86752 44.5126C1.40396 44.7902 1.25498 45.3881 1.53465 45.8479C1.71879 46.1506 2.04277 46.3182 2.37485 46.3182C2.54723 46.3182 2.72197 46.2731 2.88036 46.1781L7.10778 43.6466C7.57133 43.369 7.72019 42.7712 7.44064 42.3113Z" fill="#E0621E"/>
<path d="M7.44064 42.3113C7.16084 41.8514 6.55849 41.7036 6.09493 41.9811L1.86752 44.5126C1.40396 44.7902 1.25498 45.3881 1.53465 45.8479C1.71879 46.1506 2.04277 46.3182 2.37485 46.3182C2.54723 46.3182 2.72197 46.2731 2.88036 46.1781L7.10778 43.6466C7.57133 43.369 7.72019 42.7712 7.44064 42.3113Z" stroke="#E0621E" mask="url(#path-15-outside-15)"/>
<mask id="path-16-outside-16" maskUnits="userSpaceOnUse" x="10.7764" y="49.593" width="6" height="6" fill="black">
<rect fill="white" x="10.7764" y="49.593" width="6" height="6"/>
<path d="M14.9645 50.8262C14.553 50.4772 13.9341 50.5255 13.5826 50.9339L12.0113 52.7587C11.6598 53.1671 11.7082 53.7811 12.1198 54.1301C12.3044 54.2866 12.5308 54.3633 12.756 54.3633C13.0328 54.3633 13.3079 54.2476 13.5017 54.0225L15.073 52.1976C15.4247 51.7892 15.376 51.1752 14.9645 50.8262Z"/>
</mask>
<path d="M14.9645 50.8262C14.553 50.4772 13.9341 50.5255 13.5826 50.9339L12.0113 52.7587C11.6598 53.1671 11.7082 53.7811 12.1198 54.1301C12.3044 54.2866 12.5308 54.3633 12.756 54.3633C13.0328 54.3633 13.3079 54.2476 13.5017 54.0225L15.073 52.1976C15.4247 51.7892 15.376 51.1752 14.9645 50.8262Z" fill="#E0621E"/>
<path d="M14.9645 50.8262C14.553 50.4772 13.9341 50.5255 13.5826 50.9339L12.0113 52.7587C11.6598 53.1671 11.7082 53.7811 12.1198 54.1301C12.3044 54.2866 12.5308 54.3633 12.756 54.3633C13.0328 54.3633 13.3079 54.2476 13.5017 54.0225L15.073 52.1976C15.4247 51.7892 15.376 51.1752 14.9645 50.8262Z" stroke="#E0621E" mask="url(#path-16-outside-16)"/>
<mask id="path-17-outside-17" maskUnits="userSpaceOnUse" x="2.50781" y="54.6658" width="9" height="10" fill="black">
<rect fill="white" x="2.50781" y="54.6658" width="9" height="10"/>
<path d="M10.5964 55.899C10.1847 55.5499 9.56589 55.5984 9.21447 56.0066L3.74276 62.3616C3.3912 62.77 3.43969 63.384 3.85123 63.733C4.0359 63.8896 4.26225 63.9661 4.48743 63.9661C4.76423 63.9661 5.03933 63.8505 5.23314 63.6253L10.7049 57.2703C11.0565 56.8618 11.0081 56.248 10.5964 55.899Z"/>
</mask>
<path d="M10.5964 55.899C10.1847 55.5499 9.56589 55.5984 9.21447 56.0066L3.74276 62.3616C3.3912 62.77 3.43969 63.384 3.85123 63.733C4.0359 63.8896 4.26225 63.9661 4.48743 63.9661C4.76423 63.9661 5.03933 63.8505 5.23314 63.6253L10.7049 57.2703C11.0565 56.8618 11.0081 56.248 10.5964 55.899Z" fill="#E0621E"/>
<path d="M10.5964 55.899C10.1847 55.5499 9.56589 55.5984 9.21447 56.0066L3.74276 62.3616C3.3912 62.77 3.43969 63.384 3.85123 63.733C4.0359 63.8896 4.26225 63.9661 4.48743 63.9661C4.76423 63.9661 5.03933 63.8505 5.23314 63.6253L10.7049 57.2703C11.0565 56.8618 11.0081 56.248 10.5964 55.899Z" stroke="#E0621E" mask="url(#path-17-outside-17)"/>
<mask id="path-18-outside-18" maskUnits="userSpaceOnUse" x="27.6904" y="1.60095" width="5" height="7" fill="black">
<rect fill="white" x="27.6904" y="1.60095" width="5" height="7"/>
<path d="M29.8227 7.11079C29.9594 7.5188 30.3421 7.77688 30.7527 7.77688C30.8552 7.77688 30.9595 7.7608 31.0621 7.72695C31.5758 7.55744 31.8538 7.00691 31.683 6.49709L30.601 3.26701C30.4301 2.7572 29.8753 2.48148 29.3617 2.65085C28.8479 2.82036 28.57 3.3709 28.7408 3.88071L29.8227 7.11079Z"/>
</mask>
<path d="M29.8227 7.11079C29.9594 7.5188 30.3421 7.77688 30.7527 7.77688C30.8552 7.77688 30.9595 7.7608 31.0621 7.72695C31.5758 7.55744 31.8538 7.00691 31.683 6.49709L30.601 3.26701C30.4301 2.7572 29.8753 2.48148 29.3617 2.65085C28.8479 2.82036 28.57 3.3709 28.7408 3.88071L29.8227 7.11079Z" fill="#E0621E"/>
<path d="M29.8227 7.11079C29.9594 7.5188 30.3421 7.77688 30.7527 7.77688C30.8552 7.77688 30.9595 7.7608 31.0621 7.72695C31.5758 7.55744 31.8538 7.00691 31.683 6.49709L30.601 3.26701C30.4301 2.7572 29.8753 2.48148 29.3617 2.65085C28.8479 2.82036 28.57 3.3709 28.7408 3.88071L29.8227 7.11079Z" stroke="#E0621E" mask="url(#path-18-outside-18)"/>
</svg>
