<svg xmlns="http://www.w3.org/2000/svg" width="20" height="20" fill="none" viewBox="0 0 20 20">
    <path stroke="#90939E" d="M1.4 6.5L10 11l8.6-4.5"/>
    <path fill="#90939E" d="M1 4v12h18V4H1zm17 11H2V5h16v10z"/>
</svg>
