<svg xmlns="http://www.w3.org/2000/svg" width="1410" height="400" fill="none" viewBox="0 0 1410 400">
    <path fill="url(#paint0_linear)" d="M0 0H1410V400H0z"/>
    <defs>
        <linearGradient id="paint0_linear" x1="705" x2="705" y1="0" y2="400" gradientUnits="userSpaceOnUse">
            <stop stop-opacity=".2"/>
            <stop offset="1"/>
        </linearGradient>
    </defs>
</svg>
