<svg width="350" height="350" viewBox="0 0 350 350" fill="none" xmlns="http://www.w3.org/2000/svg">
<path d="M5.18485 344.815L3.42696 346.573L5.18484 344.815C3.46578 343.096 2.5 340.764 2.5 338.333V270.833H347.5V338.333C347.5 340.764 346.534 343.096 344.815 344.815C343.096 346.534 340.764 347.5 338.333 347.5H11.6667C9.23551 347.5 6.90394 346.534 5.18485 344.815ZM315.537 12.4324L315.588 12.5899L315.658 12.7393L336.128 55.8333H13.8274L33.7691 12.7161L33.8198 12.6065L33.8596 12.4925C34.8218 9.74359 36.5634 7.33419 38.8719 5.55842C41.1558 3.80155 43.8969 2.7401 46.767 2.5H303.216C305.996 2.7718 308.637 3.84516 310.819 5.59069C313.029 7.35874 314.67 9.7382 315.537 12.4324ZM44.8463 228.478L45.803 226.168L44.8463 228.478C48.5009 229.991 52.5222 230.387 56.4018 229.616C60.2814 228.844 63.8451 226.939 66.6421 224.142C69.4392 221.345 71.344 217.781 72.1157 213.902C72.8874 210.022 72.4913 206.001 70.9776 202.346C69.4638 198.692 66.9004 195.568 63.6114 193.371C60.3224 191.173 56.4556 190 52.5 190C47.1957 190 42.1086 192.107 38.3579 195.858C34.6071 199.609 32.5 204.696 32.5 210C32.5 213.956 33.673 217.822 35.8706 221.111C38.0682 224.4 41.1918 226.964 44.8463 228.478ZM303.333 289.167H186.667C182.909 289.167 179.306 290.659 176.649 293.316C173.993 295.973 172.5 299.576 172.5 303.333C172.5 307.091 173.993 310.694 176.649 313.351C179.306 316.007 182.909 317.5 186.667 317.5H303.333C307.091 317.5 310.694 316.007 313.351 313.351C316.007 310.694 317.5 307.091 317.5 303.333C317.5 299.576 316.007 295.973 313.351 293.316C310.694 290.659 307.091 289.167 303.333 289.167ZM63.6114 286.704C60.3224 284.506 56.4556 283.333 52.5 283.333C47.1957 283.333 42.1086 285.44 38.3579 289.191C34.6071 292.942 32.5 298.029 32.5 303.333C32.5 307.289 33.673 311.156 35.8706 314.445C38.0682 317.734 41.1918 320.297 44.8463 321.811C48.5008 323.325 52.5222 323.721 56.4018 322.949C60.2814 322.177 63.8451 320.273 66.6421 317.475C69.4392 314.678 71.344 311.115 72.1157 307.235C72.8874 303.356 72.4913 299.334 70.9776 295.68C69.4638 292.025 66.9004 288.902 63.6114 286.704ZM347.5 242.5H2.5V177.5H347.5V242.5ZM303.333 195.833H186.667C182.909 195.833 179.306 197.326 176.649 199.983C173.993 202.639 172.5 206.243 172.5 210C172.5 213.757 173.993 217.361 176.649 220.017C179.306 222.674 182.909 224.167 186.667 224.167H303.333C307.091 224.167 310.694 222.674 313.351 220.017C316.007 217.361 317.5 213.757 317.5 210C317.5 206.243 316.007 202.639 313.351 199.983C310.694 197.326 307.091 195.833 303.333 195.833ZM2.5 84.1667H347.5V149.167H2.5V84.1667ZM41.3886 133.296C44.6776 135.494 48.5444 136.667 52.5 136.667C57.8043 136.667 62.8914 134.56 66.6421 130.809C70.3929 127.058 72.5 121.971 72.5 116.667C72.5 112.711 71.327 108.844 69.1294 105.555C66.9318 102.266 63.8082 99.7028 60.1537 98.1891C56.4991 96.6753 52.4778 96.2793 48.5982 97.051C44.7186 97.8227 41.1549 99.7275 38.3579 102.525C35.5608 105.322 33.656 108.885 32.8843 112.765C32.1126 116.644 32.5087 120.666 34.0224 124.32C35.5362 127.975 38.0996 131.098 41.3886 133.296ZM186.667 130.833H303.333C307.091 130.833 310.694 129.341 313.351 126.684C316.007 124.027 317.5 120.424 317.5 116.667C317.5 112.909 316.007 109.306 313.351 106.649C310.694 103.993 307.091 102.5 303.333 102.5H186.667C182.909 102.5 179.306 103.993 176.649 106.649C173.993 109.306 172.5 112.909 172.5 116.667C172.5 120.424 173.993 124.027 176.649 126.684C179.306 129.341 182.909 130.833 186.667 130.833Z" stroke="white" stroke-width="5"/>
</svg>
