<svg xmlns="http://www.w3.org/2000/svg" width="450" height="446" fill="none" viewBox="0 0 450 446">
    <g opacity=".03">
        <path fill="url(#paint0_linear)" d="M366.791 0h-.912v223.247c-.163 36.808-14.929 72.058-41.077 98.054-26.148 25.996-61.553 40.627-98.486 40.699-36.94-.05-72.357-14.674-98.508-40.675-26.152-26.001-40.91-61.264-41.048-98.078V0H0v221.759c0 59.473 23.705 116.509 65.9 158.562C108.097 422.375 165.327 446 225 446c59.674 0 116.903-23.625 159.099-65.679C426.295 338.268 450 281.232 450 221.759V0h-83.209z"/>
        <path fill="#222020" d="M268.097 0h-28.446l-59.7 66.902-27.591 30.81v25.918h27.591v167.499c0 1.709.681 3.348 1.893 4.557 1.213 1.208 2.858 1.887 4.573 1.887h81.68c1.715 0 3.359-.679 4.572-1.887 1.213-1.209 1.894-2.848 1.894-4.557V6.444c0-.846-.167-1.684-.492-2.466-.325-.782-.802-1.492-1.402-2.09-.6-.599-1.313-1.074-2.098-1.397-.784-.324-1.625-.491-2.474-.491z"/>
    </g>
    <defs>
        <linearGradient id="paint0_linear" x1="0" x2="450" y1="223" y2="223" gradientUnits="userSpaceOnUse">
            <stop stop-color="#C8302E"/>
            <stop offset="1" stop-color="#CF662D"/>
        </linearGradient>
    </defs>
</svg>
